dump.vcd
$date
	Sun Mar 27 03:25:11 2022
$end

$version
	Synopsys VCS version Q-2020.03-SP1-1
$end

$timescale
	1ns
$end

$comment Csum: 1 b54be1a987b3d41f $end


$scope module $unit $end
$upscope $end


$scope module veri_top $end
$var reg 1 ! clk $end
$var reg 1 " resetn $end

$scope begin unnamed$$_vcs_3 $end
$upscope $end


$scope begin unnamed$$_vcs_0 $end
$upscope $end


$scope begin unnamed$$_vcs_1 $end
$upscope $end


$scope begin unnamed$$_vcs_2 $end
$upscope $end


$scope module vif $end
$var reg 1 # clk $end
$var reg 1 $ resetn $end
$var reg 1 % hsel $end
$var reg 32 & haddr [31:0] $end
$var reg 2 ' htrans [1:0] $end
$var reg 1 ( hwrite $end
$var reg 3 ) hsize [2:0] $end
$var reg 3 * hburst [2:0] $end
$var reg 4 + hprot [3:0] $end
$var reg 32 , hwdata [31:0] $end
$var reg 32 - hrdata [31:0] $end
$var reg 1 . hready $end
$var reg 1 / hresp [0:0] $end
$var reg 1 0 error $end
$upscope $end


$scope module DUT $end
$var wire 1 1 hclk $end
$var wire 1 2 hresetn $end
$var wire 1 3 hsel $end
$var wire 32 4 haddr [31:0] $end
$var wire 2 5 htrans [1:0] $end
$var wire 1 6 hwrite $end
$var wire 3 7 hsize [2:0] $end
$var wire 3 8 hburst [2:0] $end
$var wire 4 9 hprot [3:0] $end
$var wire 32 : hwdata [31:0] $end
$var wire 32 ; hrdata [31:0] $end
$var reg 1 < hready $end
$var reg 1 = hresp [0:0] $end
$var wor 1 > error $end
$var wor 1 ? error_req $end
$var wire 32 @ delay [31:0] $end
$var wire 32 A cnt_t [31:0] $end
$var reg 32 B cnt_t_r [31:0] $end
$var reg 1 C hsel_r $end
$var reg 32 D haddr_r [31:0] $end
$var reg 2 E htrans_r [1:0] $end
$var reg 1 F hwrite_r $end
$var reg 3 G hsize_r [2:0] $end
$var reg 3 H hburst_r [2:0] $end
$var reg 3 I hprot_r [2:0] $end
$var wire 8 J bytes [7:0] $end
$var wire 32 K wdata [31:0] $end
$var wire 32 L rdata [31:0] $end
$var wire 1 M trn $end
$var wire 1 N trn_req $end
$var wire 1 O trn_ack $end

$scope begin unnamed$$_0 $end
$upscope $end

$upscope $end

$upscope $end


$scope module uvm_pkg $end
$var reg 32 P UVM_UNBOUNDED_CONNECTIONS [31:0] $end
$var reg 1 Q uvm_start_uvm_declarations $end
$var time 64 R setting_offset $end
$var reg 32 S setting_verbosity [31:0] $end
$var reg 1 T is_verdi_set_verbosity_called $end
$var reg 32 U uvm_global_random_seed [31:0] $end
$upscope $end

$enddefinitions $end

#0
$dumpvars
0T
1Q
bxxxxxxxxxxxxxxxxxxxxxxxxxxxxxxxxxxxxxxxxxxxxxxxxxxxxxxxxxxxxxxxx R
b11111111111111111111111111111111 P
b00000000000000000000000000000000 S
b01000010000001111100110001000111 U
0!
0"
bxxxxxxxxxxxxxxxxxxxxxxxxxxxxxxxx -
bxxxxxxxxxxxxxxxxxxxxxxxxxxxxxxxx ,
bxxxx +
bxxx *
bxxx )
bxx '
bxxxxxxxxxxxxxxxxxxxxxxxxxxxxxxxx &
0?
1<
0=
xC
xF
xN
0M
1O
b00000000000000000000000000000000 A
b00000000000000000000000000000000 B
bxxxxxxxxxxxxxxxxxxxxxxxxxxxxxxxx D
bxxx H
bxxx I
bxxx G
b00 E
bxxxxxxxxxxxxxxxxxxxxxxxxxxxxxxxx L
bxxxxxxxx J
bxxxxxxxxxxxxxxxxxxxxxxxxxxxxxxxx K
b00000000000000000000000000000000 @
bxxxxxxxxxxxxxxxxxxxxxxxxxxxxxxxx 4
bxx 5
bxxx 7
bxxx 8
bxxxx 9
bxxxxxxxxxxxxxxxxxxxxxxxxxxxxxxxx :
bxxxxxxxxxxxxxxxxxxxxxxxxxxxxxxxx ;
0>
00
1.
0/
x%
x(
01
x3
x6
02
0#
0$
$end
0N
#10
1!
1#
11
#12
b00000000000000000000000000010000 &
1(
16
b10 '
b010 )
b000 *
1%
13
b0001 +
b10101010111110001101011010010101 ,
b00000000000000000000000000010000 4
b10 5
b010 7
b000 8
b0001 9
b10101010111110001101011010010101 :
b10101010111110001101011010010101 K
#20
1"
1$
12
0!
0#
01
#30
1!
1#
11
1C
b00000000000000000000000000010000 D
b10 E
1N
1F
b010 G
b00000100 J
b000 H
b001 I
1M
#32
b01011000001010101110110011011111 ,
b00000000000000000000000000000000 &
b01011000001010101110110011011111 :
b01011000001010101110110011011111 K
b00000000000000000000000000000000 4
#40
0!
0#
01
#50
1!
1#
11
b00000000000000000000000000000000 D
#52
b11001101101101100011011001011011 ,
b00000000000000000000000000001000 &
b11001101101101100011011001011011 :
b11001101101101100011011001011011 K
b00000000000000000000000000001000 4
#60
0!
0#
01
#70
1!
1#
11
b00000000000000000000000000001000 D
#72
b11111110011100100111011010101111 ,
b00000000000000000000000000101100 &
b01 '
b11111110011100100111011010101111 :
b11111110011100100111011010101111 K
b00000000000000000000000000101100 4
b01 5
#80
0!
0#
01
#90
1!
1#
11
b00000000000000000000000000101100 D
b01 E
0N
0M
#92
b00110011101101001011101110100100 ,
b00000000000000000000000000110000 &
0(
06
b00110011101101001011101110100100 :
b00110011101101001011101110100100 K
b00000000000000000000000000110000 4
#100
0!
0#
01
#110
1!
1#
11
b00000000000000000000000000110000 D
0F
#112
b11100111010110001101010000001101 ,
b00000000000000000000000000001000 &
1(
16
b00 '
b11100111010110001101010000001101 :
b11100111010110001101010000001101 K
b00000000000000000000000000001000 4
b00 5
#120
0!
0#
01
#130
1!
1#
11
b00000000000000000000000000001000 D
b00 E
1F
#132
b10000100000100100101101111111101 ,
b00000000000000000000000000010000 &
b10 '
b10000100000100100101101111111101 :
b10000100000100100101101111111101 K
b00000000000000000000000000010000 4
b10 5
#140
0!
0#
01
#150
1!
1#
11
b00000000000000000000000000010000 D
b10 E
1N
1M
#152
b11100000111101111011101010010000 ,
b00000000000000000000000001000000 &
b11100000111101111011101010010000 :
b11100000111101111011101010010000 K
b00000000000000000000000001000000 4
#160
0!
0#
01
#170
1!
1#
11
b00000000000000000000000001000000 D
#172
b11100000110111011110010101000101 ,
b11100000110111011110010101000101 :
b11100000110111011110010101000101 K
#180
0!
0#
01
#190
1!
1#
11
#192
b01111101011000100001111100000000 ,
b00000000000000000000000000111000 &
b01111101011000100001111100000000 :
b01111101011000100001111100000000 K
b00000000000000000000000000111000 4
#200
0!
0#
01
#210
1!
1#
11
b00000000000000000000000000111000 D
#212
b10110010001100011110111011100011 ,
b00000000000000000000000000001000 &
b01 '
b10110010001100011110111011100011 :
b10110010001100011110111011100011 K
b00000000000000000000000000001000 4
b01 5
#220
0!
0#
01
#230
1!
1#
11
b00000000000000000000000000001000 D
b01 E
0N
0M
#232
b11010011100010111111101110001101 ,
b00000000000000000000000000101000 &
0(
06
b10 '
b11010011100010111111101110001101 :
b11010011100010111111101110001101 K
b00000000000000000000000000101000 4
b10 5
#240
0!
0#
01
#250
1!
1#
11
b00000000000000000000000000101000 D
b10 E
1N
0F
1M
b00101011001010100010100100101000 L
b00101011001010100010100100101000 ;
b00101011001010100010100100101000 -
#252
b11000001000100010101110001100100 ,
b00000000000000000000000000100100 &
b11000001000100010101110001100100 :
b11000001000100010101110001100100 K
b00000000000000000000000000100100 4
#260
0!
0#
01
#270
1!
1#
11
b00000000000000000000000000100100 D
b00100111001001100010010100100100 L
b00100111001001100010010100100100 ;
b00100111001001100010010100100100 -
#272
b11010011001100100101100001011000 ,
b00000000000000000000000000001000 &
b11010011001100100101100001011000 :
b11010011001100100101100001011000 K
b00000000000000000000000000001000 4
#280
0!
0#
01
#290
1!
1#
11
b00000000000000000000000000001000 D
b11111110011100100111011010101111 L
b11111110011100100111011010101111 ;
b11111110011100100111011010101111 -
#292
b00100000100110111000110100101001 ,
b00000000000000000000000000011100 &
b00100000100110111000110100101001 :
b00100000100110111000110100101001 K
b00000000000000000000000000011100 4
#300
0!
0#
01
#310
1!
1#
11
b00000000000000000000000000011100 D
b00011111000111100001110100011100 L
b00011111000111100001110100011100 ;
b00011111000111100001110100011100 -
#312
b11011110110110100011001101101101 ,
b00000000000000000000000000110000 &
1(
16
b11011110110110100011001101101101 :
b11011110110110100011001101101101 K
b00000000000000000000000000110000 4
#320
0!
0#
01
#330
1!
1#
11
b00000000000000000000000000110000 D
1F
bxxxxxxxxxxxxxxxxxxxxxxxxxxxxxxxx L
bxxxxxxxxxxxxxxxxxxxxxxxxxxxxxxxx ;
bxxxxxxxxxxxxxxxxxxxxxxxxxxxxxxxx -
#332
b11101010111000110010111111001111 ,
b00000000000000000000000000010100 &
0(
06
b11101010111000110010111111001111 :
b11101010111000110010111111001111 K
b00000000000000000000000000010100 4
#340
0!
0#
01
#350
1!
1#
11
b00000000000000000000000000010100 D
0F
b00010111000101100001010100010100 L
b00010111000101100001010100010100 ;
b00010111000101100001010100010100 -
#352
b00011001111111111101001001110110 ,
b00000000000000000000000000101000 &
1(
16
b00011001111111111101001001110110 :
b00011001111111111101001001110110 K
b00000000000000000000000000101000 4
#360
0!
0#
01
#370
1!
1#
11
b00000000000000000000000000101000 D
1F
bxxxxxxxxxxxxxxxxxxxxxxxxxxxxxxxx L
bxxxxxxxxxxxxxxxxxxxxxxxxxxxxxxxx ;
bxxxxxxxxxxxxxxxxxxxxxxxxxxxxxxxx -
#372
b01100100110011110110110100001101 ,
b00000000000000000000000000110100 &
0(
06
b01100100110011110110110100001101 :
b01100100110011110110110100001101 K
b00000000000000000000000000110100 4
#380
0!
0#
01
#390
1!
1#
11
b00000000000000000000000000110100 D
0F
b00110111001101100011010100110100 L
b00110111001101100011010100110100 ;
b00110111001101100011010100110100 -
#392
b11011001110110111111010101001011 ,
b00000000000000000000000000111100 &
b11011001110110111111010101001011 :
b11011001110110111111010101001011 K
b00000000000000000000000000111100 4
#400
0!
0#
01
#410
1!
1#
11
b00000000000000000000000000111100 D
b00111111001111100011110100111100 L
b00111111001111100011110100111100 ;
b00111111001111100011110100111100 -
#412
b00011110111000010101001000100100 ,
b00000000000000000000000000001000 &
1(
16
b00 '
b00011110111000010101001000100100 :
b00011110111000010101001000100100 K
b00000000000000000000000000001000 4
b00 5
#420
0!
0#
01
#430
1!
1#
11
b00000000000000000000000000001000 D
b00 E
0N
1F
0M
bxxxxxxxxxxxxxxxxxxxxxxxxxxxxxxxx L
bxxxxxxxxxxxxxxxxxxxxxxxxxxxxxxxx ;
bxxxxxxxxxxxxxxxxxxxxxxxxxxxxxxxx -
#432
b00111001000100001010010001010111 ,
b00000000000000000000000000010100 &
0(
06
b10 '
b00111001000100001010010001010111 :
b00111001000100001010010001010111 K
b00000000000000000000000000010100 4
b10 5
#440
0!
0#
01
#450
1!
1#
11
b00000000000000000000000000010100 D
b10 E
1N
0F
1M
b00010111000101100001010100010100 L
b00010111000101100001010100010100 ;
b00010111000101100001010100010100 -
#452
b01110110001110000111111111010101 ,
b00000000000000000000000000101100 &
1(
16
b01110110001110000111111111010101 :
b01110110001110000111111111010101 K
b00000000000000000000000000101100 4
#460
0!
0#
01
#470
1!
1#
11
b00000000000000000000000000101100 D
1F
bxxxxxxxxxxxxxxxxxxxxxxxxxxxxxxxx L
bxxxxxxxxxxxxxxxxxxxxxxxxxxxxxxxx ;
bxxxxxxxxxxxxxxxxxxxxxxxxxxxxxxxx -
#472
b10101110011100001000101101001111 ,
b00000000000000000000000000010000 &
b10101110011100001000101101001111 :
b10101110011100001000101101001111 K
b00000000000000000000000000010000 4
#480
0!
0#
01
#490
1!
1#
11
b00000000000000000000000000010000 D
#492
b10010001000011101100010110000001 ,
b00000000000000000000000000110100 &
b01 '
b10010001000011101100010110000001 :
b10010001000011101100010110000001 K
b00000000000000000000000000110100 4
b01 5
#500
0!
0#
01
#510
1!
1#
11
b00000000000000000000000000110100 D
b01 E
0N
0M
#512
b01101100100110000010111001101011 ,
b00000000000000000000000000011000 &
b10 '
b01101100100110000010111001101011 :
b01101100100110000010111001101011 K
b00000000000000000000000000011000 4
b10 5
#520
0!
0#
01
#530
1!
1#
11
b00000000000000000000000000011000 D
b10 E
1N
1M
#532
b11011010010000000100001111110101 ,
b00000000000000000000000000011100 &
b11011010010000000100001111110101 :
b11011010010000000100001111110101 K
b00000000000000000000000000011100 4
#540
0!
0#
01
#550
1!
1#
11
b00000000000000000000000000011100 D
#552
b11000001000010111000101011010101 ,
b00000000000000000000000000100000 &
0(
06
b11000001000010111000101011010101 :
b11000001000010111000101011010101 K
b00000000000000000000000000100000 4
#560
0!
0#
01
#570
1!
1#
11
b00000000000000000000000000100000 D
0F
b00100011001000100010000100100000 L
b00100011001000100010000100100000 ;
b00100011001000100010000100100000 -
#572
b00010000101001110100010101111110 ,
b00000000000000000000000000010100 &
b00010000101001110100010101111110 :
b00010000101001110100010101111110 K
b00000000000000000000000000010100 4
#580
0!
0#
01
#590
1!
1#
11
b00000000000000000000000000010100 D
b00010111000101100001010100010100 L
b00010111000101100001010100010100 ;
b00010111000101100001010100010100 -
#592
b11110001100010011110100110101111 ,
b00000000000000000000000001000000 &
1(
16
b11110001100010011110100110101111 :
b11110001100010011110100110101111 K
b00000000000000000000000001000000 4
#600
0!
0#
01
#610
1!
1#
11
b00000000000000000000000001000000 D
1F
bxxxxxxxxxxxxxxxxxxxxxxxxxxxxxxxx L
bxxxxxxxxxxxxxxxxxxxxxxxxxxxxxxxx ;
bxxxxxxxxxxxxxxxxxxxxxxxxxxxxxxxx -
#612
b10011101111100101000100110111100 ,
b00000000000000000000000000100100 &
0(
06
b10011101111100101000100110111100 :
b10011101111100101000100110111100 K
b00000000000000000000000000100100 4
#620
0!
0#
01
#630
1!
1#
11
b00000000000000000000000000100100 D
0F
b00100111001001100010010100100100 L
b00100111001001100010010100100100 ;
b00100111001001100010010100100100 -
#632
b00011101000011100110101010100000 ,
b00000000000000000000000000111100 &
1(
16
b00011101000011100110101010100000 :
b00011101000011100110101010100000 K
b00000000000000000000000000111100 4
#640
0!
0#
01
#650
1!
1#
11
b00000000000000000000000000111100 D
1F
bxxxxxxxxxxxxxxxxxxxxxxxxxxxxxxxx L
bxxxxxxxxxxxxxxxxxxxxxxxxxxxxxxxx ;
bxxxxxxxxxxxxxxxxxxxxxxxxxxxxxxxx -
#652
b01110110100100001110011110001011 ,
0(
06
b01110110100100001110011110001011 :
b01110110100100001110011110001011 K
#660
0!
0#
01
#670
1!
1#
11
0F
b01110110100100001110011110001011 L
b01110110100100001110011110001011 ;
b01110110100100001110011110001011 -
#672
b11011101111000110001110111001000 ,
b00000000000000000000000000010100 &
1(
16
b00 '
b11011101111000110001110111001000 :
b11011101111000110001110111001000 K
b00000000000000000000000000010100 4
b00 5
#680
0!
0#
01
#690
1!
1#
11
b00000000000000000000000000010100 D
b00 E
0N
1F
0M
bxxxxxxxxxxxxxxxxxxxxxxxxxxxxxxxx L
bxxxxxxxxxxxxxxxxxxxxxxxxxxxxxxxx ;
bxxxxxxxxxxxxxxxxxxxxxxxxxxxxxxxx -
#692
b00001001101001000000010110101111 ,
b10 '
b00001001101001000000010110101111 :
b00001001101001000000010110101111 K
b10 5
#700
0!
0#
01
#710
1!
1#
11
b10 E
1N
1M
#712
b00011000011010001001101101011110 ,
b00000000000000000000000000011000 &
0(
06
b00011000011010001001101101011110 :
b00011000011010001001101101011110 K
b00000000000000000000000000011000 4
#720
0!
0#
01
#730
1!
1#
11
b00000000000000000000000000011000 D
0F
b11011010010000000100001111110101 L
b11011010010000000100001111110101 ;
b11011010010000000100001111110101 -
#732
b01110000111101011000111011111100 ,
b00000000000000000000000000001100 &
1(
16
b01110000111101011000111011111100 :
b01110000111101011000111011111100 K
b00000000000000000000000000001100 4
#740
0!
0#
01
#750
1!
1#
11
b00000000000000000000000000001100 D
1F
bxxxxxxxxxxxxxxxxxxxxxxxxxxxxxxxx L
bxxxxxxxxxxxxxxxxxxxxxxxxxxxxxxxx ;
bxxxxxxxxxxxxxxxxxxxxxxxxxxxxxxxx -
#752
b10100111000110111110001000110110 ,
b00000000000000000000000000010100 &
b10100111000110111110001000110110 :
b10100111000110111110001000110110 K
b00000000000000000000000000010100 4
#760
0!
0#
01
#770
1!
1#
11
b00000000000000000000000000010100 D
#772
b00000110111110101100101000100011 ,
b00000000000000000000000000110000 &
b00000110111110101100101000100011 :
b00000110111110101100101000100011 K
b00000000000000000000000000110000 4
#780
0!
0#
01
#790
1!
1#
11
b00000000000000000000000000110000 D
#792
b00101111010111000111100000001110 ,
b00000000000000000000000000101000 &
b00101111010111000111100000001110 :
b00101111010111000111100000001110 K
b00000000000000000000000000101000 4
#800
0!
0#
01
#810
1!
1#
11
b00000000000000000000000000101000 D
#812
b00100111011000010101000101100001 ,
b00000000000000000000000000001100 &
0(
06
b00 '
b00100111011000010101000101100001 :
b00100111011000010101000101100001 K
b00000000000000000000000000001100 4
b00 5
#820
0!
0#
01
#830
1!
1#
11
b00000000000000000000000000001100 D
b00 E
0N
0F
0M
#832
b01010001111101101100011000011011 ,
b00000000000000000000000000100100 &
1(
16
b10 '
b01010001111101101100011000011011 :
b01010001111101101100011000011011 K
b00000000000000000000000000100100 4
b10 5
#840
0!
0#
01
#850
1!
1#
11
b00000000000000000000000000100100 D
b10 E
1N
1F
1M
#852
b01100111101000110001101010001101 ,
b00000000000000000000000001000000 &
b01100111101000110001101010001101 :
b01100111101000110001101010001101 K
b00000000000000000000000001000000 4
#860
0!
0#
01
#870
1!
1#
11
b00000000000000000000000001000000 D
#872
b10011111110111011101000011000101 ,
b00000000000000000000000000001000 &
0(
06
b10011111110111011101000011000101 :
b10011111110111011101000011000101 K
b00000000000000000000000000001000 4
#880
0!
0#
01
#890
1!
1#
11
b00000000000000000000000000001000 D
0F
b11111110011100100111011010101111 L
b11111110011100100111011010101111 ;
b11111110011100100111011010101111 -
#892
b00010010011101101100011101100101 ,
b00000000000000000000000000101000 &
1(
16
b00010010011101101100011101100101 :
b00010010011101101100011101100101 K
b00000000000000000000000000101000 4
#900
0!
0#
01
#910
1!
1#
11
b00000000000000000000000000101000 D
1F
bxxxxxxxxxxxxxxxxxxxxxxxxxxxxxxxx L
bxxxxxxxxxxxxxxxxxxxxxxxxxxxxxxxx ;
bxxxxxxxxxxxxxxxxxxxxxxxxxxxxxxxx -
#912
b01000010111011101001001010010000 ,
b00000000000000000000000000001000 &
0(
06
b01000010111011101001001010010000 :
b01000010111011101001001010010000 K
b00000000000000000000000000001000 4
#920
0!
0#
01
#930
1!
1#
11
b00000000000000000000000000001000 D
0F
b11111110011100100111011010101111 L
b11111110011100100111011010101111 ;
b11111110011100100111011010101111 -
#932
b00001100000101100010001010111000 ,
b00000000000000000000000000000100 &
b00001100000101100010001010111000 :
b00001100000101100010001010111000 K
b00000000000000000000000000000100 4
#940
0!
0#
01
#950
1!
1#
11
b00000000000000000000000000000100 D
b00000111000001100000010100000100 L
b00000111000001100000010100000100 ;
b00000111000001100000010100000100 -
#952
b00011111101101100001101000001000 ,
b00011111101101100001101000001000 :
b00011111101101100001101000001000 K
#960
0!
0#
01
#970
1!
1#
11
#972
b00011011100101111011111000001010 ,
b00000000000000000000000000010100 &
1(
16
b00011011100101111011111000001010 :
b00011011100101111011111000001010 K
b00000000000000000000000000010100 4
#980
0!
0#
01
#990
1!
1#
11
b00000000000000000000000000010100 D
1F
bxxxxxxxxxxxxxxxxxxxxxxxxxxxxxxxx L
bxxxxxxxxxxxxxxxxxxxxxxxxxxxxxxxx ;
bxxxxxxxxxxxxxxxxxxxxxxxxxxxxxxxx -
#992
b00011001110010110011000101100001 ,
b00000000000000000000000000101100 &
0(
06
b00011001110010110011000101100001 :
b00011001110010110011000101100001 K
b00000000000000000000000000101100 4
#1000
0!
0#
01
#1010
1!
1#
11
b00000000000000000000000000101100 D
0F
b10101110011100001000101101001111 L
b10101110011100001000101101001111 ;
b10101110011100001000101101001111 -
#1012
b00011110110001100011010000011000 ,
b00000000000000000000000000110000 &
1(
16
b00011110110001100011010000011000 :
b00011110110001100011010000011000 K
b00000000000000000000000000110000 4
#1020
0!
0#
01
#1030
1!
1#
11
b00000000000000000000000000110000 D
1F
bxxxxxxxxxxxxxxxxxxxxxxxxxxxxxxxx L
bxxxxxxxxxxxxxxxxxxxxxxxxxxxxxxxx ;
bxxxxxxxxxxxxxxxxxxxxxxxxxxxxxxxx -
#1032
b11000101000010101011001010011101 ,
b00000000000000000000000000111100 &
b11000101000010101011001010011101 :
b11000101000010101011001010011101 K
b00000000000000000000000000111100 4
#1040
0!
0#
01
#1050
1!
1#
11
b00000000000000000000000000111100 D
#1052
b00011010010000010100110010000111 ,
b00000000000000000000000000101000 &
0(
06
b01 '
b00011010010000010100110010000111 :
b00011010010000010100110010000111 K
b00000000000000000000000000101000 4
b01 5
#1060
0!
0#
01
#1070
1!
1#
11
b00000000000000000000000000101000 D
b01 E
0N
0F
0M
#1072
b01010011001000001111100100110010 ,
b00000000000000000000000000111000 &
1(
16
b10 '
b01010011001000001111100100110010 :
b01010011001000001111100100110010 K
b00000000000000000000000000111000 4
b10 5
#1080
0!
0#
01
#1090
1!
1#
11
b00000000000000000000000000111000 D
b10 E
1N
1F
1M
#1092
b00010011100101101110001000100011 ,
b00000000000000000000000000001100 &
0(
06
b00 '
b00010011100101101110001000100011 :
b00010011100101101110001000100011 K
b00000000000000000000000000001100 4
b00 5
#1100
0!
0#
01
#1110
1!
1#
11
b00000000000000000000000000001100 D
b00 E
0N
0F
0M
#1112
b11010000001001010100101000001100 ,
b00000000000000000000000000010100 &
1(
16
b11010000001001010100101000001100 :
b11010000001001010100101000001100 K
b00000000000000000000000000010100 4
#1120
0!
0#
01
#1130
1!
1#
11
b00000000000000000000000000010100 D
1F
#1132
b00101111110111011101110101111000 ,
b00000000000000000000000000000100 &
0(
06
b10 '
b00101111110111011101110101111000 :
b00101111110111011101110101111000 K
b00000000000000000000000000000100 4
b10 5
#1140
0!
0#
01
#1150
1!
1#
11
b00000000000000000000000000000100 D
b10 E
1N
0F
1M
b00000111000001100000010100000100 L
b00000111000001100000010100000100 ;
b00000111000001100000010100000100 -
#1152
b00100010000101101101011111111010 ,
b00000000000000000000000000010100 &
1(
16
b00100010000101101101011111111010 :
b00100010000101101101011111111010 K
b00000000000000000000000000010100 4
#1160
0!
0#
01
#1170
1!
1#
11
b00000000000000000000000000010100 D
1F
bxxxxxxxxxxxxxxxxxxxxxxxxxxxxxxxx L
bxxxxxxxxxxxxxxxxxxxxxxxxxxxxxxxx ;
bxxxxxxxxxxxxxxxxxxxxxxxxxxxxxxxx -
#1172
b01001000110001111110101000001010 ,
0(
06
b01001000110001111110101000001010 :
b01001000110001111110101000001010 K
#1180
0!
0#
01
#1190
1!
1#
11
0F
b01001000110001111110101000001010 L
b01001000110001111110101000001010 ;
b01001000110001111110101000001010 -
#1192
b00010100001010110011011001101010 ,
b00000000000000000000000000110100 &
b00010100001010110011011001101010 :
b00010100001010110011011001101010 K
b00000000000000000000000000110100 4
#1200
0!
0#
01
#1210
1!
1#
11
b00000000000000000000000000110100 D
b00110111001101100011010100110100 L
b00110111001101100011010100110100 ;
b00110111001101100011010100110100 -
#1212
b10100000100100011010100100010111 ,
1(
16
b10100000100100011010100100010111 :
b10100000100100011010100100010111 K
#1220
0!
0#
01
#1230
1!
1#
11
1F
bxxxxxxxxxxxxxxxxxxxxxxxxxxxxxxxx L
bxxxxxxxxxxxxxxxxxxxxxxxxxxxxxxxx ;
bxxxxxxxxxxxxxxxxxxxxxxxxxxxxxxxx -
#1232
b11011110101101101001111001000101 ,
b00000000000000000000000000100000 &
b11011110101101101001111001000101 :
b11011110101101101001111001000101 K
b00000000000000000000000000100000 4
#1240
0!
0#
01
#1250
1!
1#
11
b00000000000000000000000000100000 D
#1252
b00010110000101011000010110100110 ,
b00000000000000000000000000111000 &
b00010110000101011000010110100110 :
b00010110000101011000010110100110 K
b00000000000000000000000000111000 4
#1260
0!
0#
01
#1270
1!
1#
11
b00000000000000000000000000111000 D
#1272
b00111101100000010010001011000011 ,
0(
06
b00111101100000010010001011000011 :
b00111101100000010010001011000011 K
#1280
0!
0#
01
#1290
1!
1#
11
0F
b00111101100000010010001011000011 L
b00111101100000010010001011000011 ;
b00111101100000010010001011000011 -
#1292
b10101001111000111010011011101110 ,
b00000000000000000000000000010100 &
1(
16
b10101001111000111010011011101110 :
b10101001111000111010011011101110 K
b00000000000000000000000000010100 4
#1300
0!
0#
01
#1310
1!
1#
11
b00000000000000000000000000010100 D
1F
bxxxxxxxxxxxxxxxxxxxxxxxxxxxxxxxx L
bxxxxxxxxxxxxxxxxxxxxxxxxxxxxxxxx ;
bxxxxxxxxxxxxxxxxxxxxxxxxxxxxxxxx -
#1312
b01111101110110100110100100110100 ,
b00000000000000000000000000110100 &
0(
06
b01111101110110100110100100110100 :
b01111101110110100110100100110100 K
b00000000000000000000000000110100 4
#1320
0!
0#
01
#1330
1!
1#
11
b00000000000000000000000000110100 D
0F
b11011110101101101001111001000101 L
b11011110101101101001111001000101 ;
b11011110101101101001111001000101 -
#1332
b11111010110011000010001010111010 ,
b00000000000000000000000000111100 &
1(
16
b11111010110011000010001010111010 :
b11111010110011000010001010111010 K
b00000000000000000000000000111100 4
#1340
0!
0#
01
#1350
1!
1#
11
b00000000000000000000000000111100 D
1F
bxxxxxxxxxxxxxxxxxxxxxxxxxxxxxxxx L
bxxxxxxxxxxxxxxxxxxxxxxxxxxxxxxxx ;
bxxxxxxxxxxxxxxxxxxxxxxxxxxxxxxxx -
#1352
b01010111110000001111111000011111 ,
b00000000000000000000000000001100 &
0(
06
b01010111110000001111111000011111 :
b01010111110000001111111000011111 K
b00000000000000000000000000001100 4
#1360
0!
0#
01
#1370
1!
1#
11
b00000000000000000000000000001100 D
0F
b10100111000110111110001000110110 L
b10100111000110111110001000110110 ;
b10100111000110111110001000110110 -
#1372
b00000101011101001101100011110010 ,
b00000000000000000000000000110100 &
b00000101011101001101100011110010 :
b00000101011101001101100011110010 K
b00000000000000000000000000110100 4
#1380
0!
0#
01
#1390
1!
1#
11
b00000000000000000000000000110100 D
b11011110101101101001111001000101 L
b11011110101101101001111001000101 ;
b11011110101101101001111001000101 -
#1392
b10001000101010111000001000111011 ,
b00000000000000000000000000100000 &
1(
16
b10001000101010111000001000111011 :
b10001000101010111000001000111011 K
b00000000000000000000000000100000 4
#1400
0!
0#
01
#1410
1!
1#
11
b00000000000000000000000000100000 D
1F
bxxxxxxxxxxxxxxxxxxxxxxxxxxxxxxxx L
bxxxxxxxxxxxxxxxxxxxxxxxxxxxxxxxx ;
bxxxxxxxxxxxxxxxxxxxxxxxxxxxxxxxx -
#1412
b01011010100111001010111111001101 ,
b00000000000000000000000000011100 &
b01011010100111001010111111001101 :
b01011010100111001010111111001101 K
b00000000000000000000000000011100 4
#1420
0!
0#
01
#1430
1!
1#
11
b00000000000000000000000000011100 D
#1432
b01001111101100111110010110101111 ,
b00000000000000000000000001000000 &
b01001111101100111110010110101111 :
b01001111101100111110010110101111 K
b00000000000000000000000001000000 4
#1440
0!
0#
01
#1450
1!
1#
11
b00000000000000000000000001000000 D
#1452
b00011101110100000010000011101110 ,
b00000000000000000000000000101100 &
0(
06
b00011101110100000010000011101110 :
b00011101110100000010000011101110 K
b00000000000000000000000000101100 4
#1460
0!
0#
01
#1470
1!
1#
11
b00000000000000000000000000101100 D
0F
b10101110011100001000101101001111 L
b10101110011100001000101101001111 ;
b10101110011100001000101101001111 -
#1472
b11110000111100101101010011111000 ,
b00000000000000000000000000101000 &
b11110000111100101101010011111000 :
b11110000111100101101010011111000 K
b00000000000000000000000000101000 4
#1480
0!
0#
01
#1490
1!
1#
11
b00000000000000000000000000101000 D
b01000010111011101001001010010000 L
b01000010111011101001001010010000 ;
b01000010111011101001001010010000 -
#1492
b11010100101011110100111111110000 ,
b00000000000000000000000000010100 &
b11010100101011110100111111110000 :
b11010100101011110100111111110000 K
b00000000000000000000000000010100 4
#1500
0!
0#
01
#1510
1!
1#
11
b00000000000000000000000000010100 D
b01111101110110100110100100110100 L
b01111101110110100110100100110100 ;
b01111101110110100110100100110100 -
#1512
b11011011011000010001010111011011 ,
b00000000000000000000000000101100 &
b01 '
b11011011011000010001010111011011 :
b11011011011000010001010111011011 K
b00000000000000000000000000101100 4
b01 5
#1520
0!
0#
01
#1530
1!
1#
11
b00000000000000000000000000101100 D
b01 E
0N
0M
b10101110011100001000101101001111 L
b10101110011100001000101101001111 ;
b10101110011100001000101101001111 -
bxxxxxxxxxxxxxxxxxxxxxxxxxxxxxxxx L
bxxxxxxxxxxxxxxxxxxxxxxxxxxxxxxxx ;
bxxxxxxxxxxxxxxxxxxxxxxxxxxxxxxxx -
#1532
b01111111010011000000011000011100 ,
b00000000000000000000000000010100 &
1(
16
b10 '
b01111111010011000000011000011100 :
b01111111010011000000011000011100 K
b00000000000000000000000000010100 4
b10 5
#1540
0!
0#
01
#1550
1!
1#
11
b00000000000000000000000000010100 D
b10 E
1N
1F
1M
#1552
b00010000100000011001101111000011 ,
b00000000000000000000000000001000 &
0(
06
b00010000100000011001101111000011 :
b00010000100000011001101111000011 K
b00000000000000000000000000001000 4
#1560
0!
0#
01
#1570
1!
1#
11
b00000000000000000000000000001000 D
0F
b11111110011100100111011010101111 L
b11111110011100100111011010101111 ;
b11111110011100100111011010101111 -
#1572
b00101000101100011100100101000001 ,
b00000000000000000000000000010100 &
1(
16
b01 '
b00101000101100011100100101000001 :
b00101000101100011100100101000001 K
b00000000000000000000000000010100 4
b01 5
#1580
0!
0#
01
